{
    "KPlugin": {
        "Description": "Provides shortcuts for common session actions",
        "Description[ar]": "يوفر اختصارات لإجراءات الجلسة العامة",
        "Description[bg]": "Осигурява клавишни комбинации за общи действия в сесията",
        "Description[ca@valencia]": "Proporciona dreceres per a accions habituals de sessió",
        "Description[ca]": "Proporciona dreceres per a accions habituals de sessió",
        "Description[cs]": "Poskytuje zkratky pro běžné činnosti sezení",
        "Description[eo]": "Provizas ŝparvojojn por oftaj seancaj agoj",
        "Description[es]": "Proporciona atajos de teclado para acciones comunes de sesiones",
        "Description[eu]": "Saio-ekintza arruntetarako lasterbideak ematen ditu",
        "Description[fi]": "Tarjoaa pikanäppäimet yleisiin istuntotoimintoihin",
        "Description[fr]": "Fournit des raccourcis pour les actions classiques de session",
        "Description[gl]": "Fornece atallos para accións comúns de sesión.",
        "Description[he]": "מספק קיצורים לפעולות הפעלה נפוצות",
        "Description[hu]": "Gyorsbillentyűk a gyakori munkamenet-műveletekhez",
        "Description[ia]": "Il forni vias breve per actione de session commun",
        "Description[is]": "Býður upp á flýtilykla fyrir algengar aðgerðir í setu",
        "Description[it]": "Fornisce scorciatoie per azioni comuni per le sessioni",
        "Description[ja]": "セッションに対するアクションのショートカットを提供します",
        "Description[ka]": "მოგაწოდებთ მალსახმობების ზოგადი სესიის ქმედებებისთვის",
        "Description[ko]": "공통 세션 동작 단축키 제공",
        "Description[lt]": "Pateikia bendrų seanso veiksmų sparčiuosius klavišus",
        "Description[lv]": "Nodrošina saīsnes biežākajām sesijas darbībām",
        "Description[nl]": "Levert sneltoetsen voor gemeenschappelijke acties in sessie",
        "Description[pa]": "ਆਮ ਸ਼ੈਸ਼ਨ ਕਾਰਵਾਈਆਂ ਲਈ ਸ਼ਾਰਟਕੱਟ ਦਿੰਦਾ ਹੈ",
        "Description[pl]": "Dostarcza skrótów dla powszechnych działań posiedzenia",
        "Description[ru]": "Комбинации клавиш для управления сеансом работы",
        "Description[sk]": "Poskytuje skratky pre časté akcie sedenia",
        "Description[sl]": "Nudi bližnjice za običajne dejavnosti seje",
        "Description[ta]": "அமர்வுகுறித்த வழக்கமான செயல்களுக்கான சுருக்குவழிகளை வழங்கும்",
        "Description[tr]": "Temel oturum eylemleri için kısayollar sağlar",
        "Description[uk]": "Надає клавіатурні скорочення для типових дій у сеансі",
        "Description[x-test]": "xxProvides shortcuts for common session actionsxx",
        "Description[zh_CN]": "提供常见会话操作的快捷方式",
        "Description[zh_TW]": "提供快捷鍵給一般工作階段動作",
        "Name": "Session Shortcuts",
        "Name[ar]": "اختصارات الجلسة",
        "Name[bg]": "Клавишни комбинации на сесията",
        "Name[ca@valencia]": "Dreceres de sessió",
        "Name[ca]": "Dreceres de sessió",
        "Name[cs]": "Zkratky sezení",
        "Name[eo]": "Seancaj Ŝparvojoj",
        "Name[es]": "Atajos de teclado de sesiones",
        "Name[eu]": "Saioko lasterbideak",
        "Name[fi]": "Istunnon pikanäppäimet",
        "Name[fr]": "Raccourcis de session",
        "Name[gl]": "Atallos de sesión",
        "Name[he]": "קיצורי דרך להפעלה",
        "Name[hu]": "Munkamenet-azonosítók",
        "Name[ia]": "Vias breve  de Session",
        "Name[is]": "Flýtilyklar setu",
        "Name[it]": "Scorciatoie di sessione",
        "Name[ja]": "セッションショートカット",
        "Name[ka]": "სესიის მალსახმობები",
        "Name[ko]": "세션 단축키",
        "Name[lt]": "Seanso spartieji klavišai",
        "Name[lv]": "Sesijas saīsnes",
        "Name[nl]": "Sneltoetsen van sessie",
        "Name[pa]": "ਸ਼ੈਸ਼ਨ ਸ਼ਾਰਟਕੱਟ",
        "Name[pl]": "Skróty posiedzenia",
        "Name[ru]": "Комбинации клавиш для управления сеансом работы",
        "Name[sk]": "Skratky sedenia",
        "Name[sl]": "Bližnjice seje",
        "Name[ta]": "அமர்வு சுருக்குவழிகள்",
        "Name[tr]": "Oturum Kısayolları",
        "Name[uk]": "Скорочення сеансу",
        "Name[x-test]": "xxSession Shortcutsxx",
        "Name[zh_CN]": "会话快捷键",
        "Name[zh_TW]": "工作階段快捷鍵"
    },
    "OnlyShowIn": "KDE",
    "X-KDE-Kded-autoload": true,
    "X-KDE-Kded-load-on-demand": false
}
